…
``` r
#####################################################################################
#                             EDA on Train sets                                    #
#####################################################################################

describe(train)
```

    ## # A tibble: 23 × 26
    ##    described_variabl…     n    na   mean     sd se_mean    IQR skewness kurtosis
    ##    <chr>              <int> <int>  <dbl>  <dbl>   <dbl>  <dbl>    <dbl>    <dbl>
    ##  1 Year                2489     0 2.01e3 4.59e0 9.20e-2   7    -0.00819   -1.20 
    ##  2 Life.expectancy     2489     0 6.91e1 9.61e0 1.93e-1  12.7  -0.629     -0.253
    ##  3 Adult.Mortality     2489     0 1.65e2 1.25e2 2.51e+0 155     1.16       1.66 
    ##  4 infant.deaths       2489     0 3.18e1 1.22e2 2.44e+0  23     9.33     105.   
    ##  5 Alcohol             2489     0 4.56e0 4.04e0 8.09e-2   6.71  0.621     -0.748
    ##  6 percentage.expend…  2489     0 7.16e2 1.96e3 3.92e+1 419.    4.80      28.7  
    ##  7 Hepatitis.B         2489     0 8.02e1 2.45e1 4.91e-1  21    -1.82       2.44 
    ##  8 Measles             2489     0 2.54e3 1.18e4 2.37e+2 410     9.27     111.   
    ##  9 BMI                 2489     0 3.80e1 2.00e1 4.01e-1  36.7  -0.227     -1.32 
    ## 10 under.five.deaths   2489     0 4.41e1 1.66e2 3.33e+0  30     9.09     101.   
    ## # … with 13 more rows, and 17 more variables: p00 <dbl>, p01 <dbl>, p05 <dbl>,
    ## #   p10 <dbl>, p20 <dbl>, p25 <dbl>, p30 <dbl>, p40 <dbl>, p50 <dbl>,
    ## #   p60 <dbl>, p70 <dbl>, p75 <dbl>, p80 <dbl>, p90 <dbl>, p95 <dbl>,
    ## #   p99 <dbl>, p100 <dbl>

## Observations

\*\* A High degree of skewness can be identified in Infant Deaths \*\* A
High degree of skewness can be identified in Measles \*\* A High degree
of skewness can be identified in under.five.deaths \*\* A High degree of
skewness can be identified in Population

``` r
normality(train) 
```

    ## # A tibble: 23 × 4
    ##    vars                   statistic  p_value sample
    ##    <chr>                      <dbl>    <dbl>  <dbl>
    ##  1 Year                       0.948 7.20e-29   2489
    ##  2 Life.expectancy            0.956 9.84e-27   2489
    ##  3 Adult.Mortality            0.916 4.81e-35   2489
    ##  4 infant.deaths              0.239 2.12e-72   2489
    ##  5 Alcohol                    0.908 2.33e-36   2489
    ##  6 percentage.expenditure     0.399 9.65e-68   2489
    ##  7 Hepatitis.B                0.723 1.44e-53   2489
    ##  8 Measles                    0.212 4.17e-73   2489
    ##  9 BMI                        0.926 2.73e-33   2489
    ## 10 under.five.deaths          0.247 3.40e-72   2489
    ## # … with 13 more rows

``` r
#Runs a Shapario-Wilk Tests, if the p-value is >= .05 then the data is normally distrusted, if <0.05 the data is not normally distrusted.

#Find Features that are not normally distributed 

train %>%
  normality() %>%
  filter(p_value < 0.05) %>%
  arrange(abs(p_value))
```

    ## # A tibble: 23 × 4
    ##    vars                   statistic  p_value sample
    ##    <chr>                      <dbl>    <dbl>  <dbl>
    ##  1 Measles                    0.212 4.17e-73   2489
    ##  2 Population                 0.226 9.42e-73   2489
    ##  3 infant.deaths              0.239 2.12e-72   2489
    ##  4 under.five.deaths          0.247 3.40e-72   2489
    ##  5 HIV.AIDS                   0.359 5.46e-69   2489
    ##  6 percentage.expenditure     0.399 9.65e-68   2489
    ##  7 GDP                        0.543 1.47e-62   2489
    ##  8 Diphtheria                 0.690 1.58e-55   2489
    ##  9 Polio                      0.692 2.12e-55   2489
    ## 10 log.HIV.AIDS               0.712 3.11e-54   2489
    ## # … with 13 more rows
…
